…
team_results_dates = team_results_dates_raw |>
  filter(result != "DNP") |>
  group_by(team) |>
  mutate(game_num = row_number()) |>
  ungroup()

team_results_dates
```

    ## # A tibble: 3,694 × 4
    ##    team                 date       result game_num
    ##    <chr>                <date>     <chr>     <int>
    ##  1 Arizona Diamondbacks 2024-03-28 Win           1
    ##  2 Arizona Diamondbacks 2024-03-29 Win           2
    ##  3 Arizona Diamondbacks 2024-03-30 Loss          3
    ##  4 Arizona Diamondbacks 2024-03-31 Win           4
    ##  5 Arizona Diamondbacks 2024-04-01 Loss          5
    ##  6 Arizona Diamondbacks 2024-04-02 Win           6
    ##  7 Arizona Diamondbacks 2024-04-03 Loss          7
    ##  8 Arizona Diamondbacks 2024-04-05 Loss          8
    ##  9 Arizona Diamondbacks 2024-04-06 Loss          9
    ## 10 Arizona Diamondbacks 2024-04-07 Loss         10
    ## # ℹ 3,684 more rows
